<svg width="18" height="18" viewBox="0 0 18 18" fill="none" xmlns="http://www.w3.org/2000/svg">
<path d="M3.375 2.8125L14.625 15.1875" stroke="#9B9B9B" stroke-width="1.5" stroke-linecap="round" stroke-linejoin="round"/>
<path d="M10.8916 11.0813C10.3755 11.5541 9.70016 11.8152 9.00019 11.8125C8.43253 11.8125 7.87818 11.6406 7.41 11.3196C6.94183 10.9986 6.58175 10.5434 6.37711 10.0139C6.17247 9.48445 6.13283 8.90543 6.26342 8.35299C6.39402 7.80056 6.68871 7.30057 7.10878 6.91876" stroke="#9B9B9B" stroke-width="1.5" stroke-linecap="round" stroke-linejoin="round"/>
<path d="M5.20312 4.82343C2.33438 6.27186 1.125 8.99999 1.125 8.99999C1.125 8.99999 3.375 14.0625 9 14.0625C10.3181 14.0732 11.6197 13.7695 12.7969 13.1765" stroke="#9B9B9B" stroke-width="1.5" stroke-linecap="round" stroke-linejoin="round"/>
<path d="M14.6671 11.8898C16.1999 10.5187 16.8749 8.99999 16.8749 8.99999C16.8749 8.99999 14.6249 3.93749 8.9999 3.93749C8.51226 3.93652 8.02539 3.97651 7.54443 4.05702" stroke="#9B9B9B" stroke-width="1.5" stroke-linecap="round" stroke-linejoin="round"/>
<path d="M9.52734 6.23672C10.1255 6.35005 10.6705 6.65485 11.0802 7.10512C11.4898 7.55539 11.7419 8.12669 11.7984 8.73282" stroke="#9B9B9B" stroke-width="1.5" stroke-linecap="round" stroke-linejoin="round"/>
</svg>
