<svg width="24" height="24" viewBox="0 0 24 24" fill="none" xmlns="http://www.w3.org/2000/svg">
<path opacity="0.2" d="M7.14676 18.4001L7.06088 18.4303L6.99115 18.4888L3.90936 21.0742C3.90904 21.0744 3.90873 21.0747 3.90841 21.0749C3.87217 21.1046 3.82831 21.1235 3.78183 21.1295C3.73494 21.1355 3.6873 21.1281 3.64444 21.1082C3.60159 21.0882 3.56527 21.0565 3.5397 21.0168C3.51439 20.9774 3.50064 20.9318 3.5 20.885V6C3.5 5.9337 3.52634 5.87011 3.57322 5.82322C3.62011 5.77634 3.6837 5.75 3.75 5.75H20.25C20.3163 5.75 20.3799 5.77634 20.4268 5.82322C20.4737 5.87011 20.5 5.9337 20.5 6V18C20.5 18.0663 20.4737 18.1299 20.4268 18.1768C20.3799 18.2237 20.3163 18.25 20.25 18.25H7.65937H7.57409L7.49363 18.2783L7.14676 18.4001Z" fill="#9B9B9B" stroke="#9B9B9B"/>
<path d="M7.3125 18.8719L4.22812 21.4594C4.11886 21.5498 3.9862 21.6074 3.84553 21.6254C3.70486 21.6435 3.56195 21.6213 3.43338 21.5615C3.30481 21.5016 3.19585 21.4065 3.11914 21.2872C3.04244 21.1679 3.00112 21.0293 3 20.8875V6C3 5.80109 3.07902 5.61032 3.21967 5.46967C3.36032 5.32902 3.55109 5.25 3.75 5.25H20.25C20.4489 5.25 20.6397 5.32902 20.7803 5.46967C20.921 5.61032 21 5.80109 21 6V18C21 18.1989 20.921 18.3897 20.7803 18.5303C20.6397 18.671 20.4489 18.75 20.25 18.75H7.65937L7.3125 18.8719Z" stroke="#9B9B9B" stroke-width="1.5" stroke-linecap="round" stroke-linejoin="round"/>
<path d="M9 10.5H15" stroke="#9B9B9B" stroke-width="1.5" stroke-linecap="round" stroke-linejoin="round"/>
<path d="M9 13.5H15" stroke="#9B9B9B" stroke-width="1.5" stroke-linecap="round" stroke-linejoin="round"/>
</svg>
