<svg width="24" height="24" viewBox="0 0 24 24" fill="none" xmlns="http://www.w3.org/2000/svg">
<rect width="24" height="24" rx="5" fill="#E4A508"/>
<path d="M12 4.6875C10.5537 4.6875 9.13993 5.11637 7.9374 5.91988C6.73486 6.72339 5.7976 7.86544 5.24413 9.20163C4.69067 10.5378 4.54586 12.0081 4.82801 13.4266C5.11017 14.8451 5.80661 16.148 6.82928 17.1707C7.85196 18.1934 9.15492 18.8898 10.5734 19.172C11.9919 19.4541 13.4622 19.3093 14.7984 18.7559C16.1346 18.2024 17.2766 17.2651 18.0801 16.0626C18.8836 14.8601 19.3125 13.4463 19.3125 12C19.3105 10.0612 18.5394 8.20246 17.1685 6.83154C15.7975 5.46063 13.9388 4.68955 12 4.6875ZM11.4375 8.625C11.4375 8.47582 11.4968 8.33274 11.6023 8.22725C11.7077 8.12176 11.8508 8.0625 12 8.0625C12.1492 8.0625 12.2923 8.12176 12.3978 8.22725C12.5032 8.33274 12.5625 8.47582 12.5625 8.625V12.5625C12.5625 12.7117 12.5032 12.8548 12.3978 12.9602C12.2923 13.0657 12.1492 13.125 12 13.125C11.8508 13.125 11.7077 13.0657 11.6023 12.9602C11.4968 12.8548 11.4375 12.7117 11.4375 12.5625V8.625ZM12 15.9375C11.8331 15.9375 11.67 15.888 11.5312 15.7953C11.3925 15.7026 11.2843 15.5708 11.2205 15.4166C11.1566 15.2625 11.1399 15.0928 11.1725 14.9291C11.205 14.7655 11.2854 14.6151 11.4034 14.4971C11.5214 14.3791 11.6717 14.2988 11.8354 14.2662C11.9991 14.2337 12.1687 14.2504 12.3229 14.3142C12.4771 14.3781 12.6088 14.4862 12.7016 14.625C12.7943 14.7637 12.8438 14.9269 12.8438 15.0938C12.8438 15.3175 12.7549 15.5321 12.5966 15.6904C12.4384 15.8486 12.2238 15.9375 12 15.9375Z" fill="white"/>
</svg>
