<svg width="18" height="18" viewBox="0 0 18 18" fill="none" xmlns="http://www.w3.org/2000/svg">
<path d="M12.375 10.125L14.625 12.375L12.375 14.625" stroke="black" stroke-linecap="round" stroke-linejoin="round"/>
<path d="M3.375 12.375H14.625" stroke="black" stroke-linecap="round" stroke-linejoin="round"/>
<path d="M5.625 7.875L3.375 5.625L5.625 3.375" stroke="black" stroke-linecap="round" stroke-linejoin="round"/>
<path d="M14.625 5.625H3.375" stroke="black" stroke-linecap="round" stroke-linejoin="round"/>
</svg>
