<svg width="56" height="56" viewBox="0 0 56 56" fill="none" xmlns="http://www.w3.org/2000/svg">
<g clip-path="url(#clip0_1332_5389)">
<path d="M31.8759 11.4809H38.0577L28.5959 1.52734V8.1881C28.5959 9.99236 30.0593 11.4809 31.8759 11.4809Z" fill="#E1E1E1"/>
<path d="M21.6199 36.5846H10.6568C10.1018 36.5846 9.64763 36.1309 9.64763 35.5754C9.64763 35.0205 10.1018 34.5663 10.6568 34.5663H22.2885C22.9315 32.9265 23.7895 31.5384 24.8495 30.1507H10.6568C10.1018 30.1507 9.64763 29.697 9.64763 29.1416C9.64763 28.5866 10.1018 28.1324 10.6568 28.1324H26.7669C29.7944 25.4831 33.8062 23.7929 38.1838 23.7929C38.5999 23.7929 38.9409 23.8305 39.4454 23.8685V13.4984H31.8759C28.9493 13.4984 26.5777 11.1015 26.5777 8.1873V0H7.22558C4.72747 0 2.73438 2.04352 2.73438 4.55401V43.0565C2.73438 45.567 4.72747 47.5601 7.22558 47.5601H22.427C21.5567 45.5418 21.0773 43.271 21.0773 40.8994C21.0645 39.4108 21.2666 37.9723 21.6199 36.5846ZM10.6568 21.8246H23.4366C23.9915 21.8246 24.4457 22.2787 24.4457 22.8341C24.4457 23.3891 23.9915 23.8433 23.4366 23.8433H10.6568C10.1018 23.8433 9.64763 23.3891 9.64763 22.8341C9.64763 22.2787 10.1018 21.8246 10.6568 21.8246Z" fill="#E1E1E1"/>
<path d="M38.221 26.5C30.3503 26.5 23.942 32.9083 23.942 40.779C23.942 48.6497 30.3503 55.058 38.221 55.058C46.0917 55.058 52.5 48.6497 52.5 40.779C52.5124 32.9083 46.1041 26.5 38.221 26.5ZM42.9557 40.3573C42.7575 40.5684 42.4849 40.6675 42.2247 40.6675C41.9769 40.6675 41.7287 40.5807 41.5305 40.4069L39.2622 38.3249V45.4766C39.2622 46.0217 38.8162 46.4682 38.2706 46.4682C37.7254 46.4682 37.2789 46.0217 37.2789 45.4766V38.3249L35.0731 40.4069C34.6761 40.779 34.0814 40.7542 33.6969 40.3573C33.3252 39.9608 33.35 39.3285 33.7465 38.9568L37.6511 35.3252C38.0352 34.9655 38.6179 34.9655 39.002 35.3252L42.8942 38.9568C43.3031 39.3285 43.3279 39.9608 42.9557 40.3573Z" fill="#CCCCCC"/>
</g>
<defs>
<clipPath id="clip0_1332_5389">
<rect width="56" height="56" fill="white"/>
</clipPath>
</defs>
</svg>
