<svg width="56" height="56" viewBox="0 0 56 56" fill="none" xmlns="http://www.w3.org/2000/svg">
<g clip-path="url(#clip0_1489_4334)">
<path d="M3.34662 38.7307C2.80102 38.7307 2.35498 38.2475 2.35498 37.7019V10.2847C2.35498 9.7395 2.80102 9.35498 3.34662 9.35498H40.3577C40.9028 9.35498 41.3989 9.73907 41.3989 10.2847V18.4032C41.5228 18.4032 41.5971 18.4032 41.721 18.4032C42.3905 18.4032 43.01 18.4404 43.6299 18.5271V10C43.6299 8.34315 42.2868 7 40.6299 7H3C1.34315 7 0 8.34315 0 10V38.0857C0 39.7425 1.34315 41.0857 3 41.0857H26.7606C26.4384 40.3423 26.1778 39.4745 25.9672 38.7307H3.34662Z" fill="#E1E1E1"/>
<path d="M24.6904 31.0095C23.5501 31.9763 21.8642 32.0011 20.6867 31.0594L13.2005 25.0724C12.754 24.7131 12.1221 24.7379 11.7004 25.1096L4.33813 31.617V36.7486H25.5953C25.5086 36.0048 25.4714 35.3725 25.4714 34.6786C25.4714 32.9556 25.744 31.2701 26.2396 29.7081L24.6904 31.0095Z" fill="#E1E1E1"/>
<path d="M22.0877 17.25C20.6868 17.25 19.5588 18.3903 19.5588 19.7784C19.5588 21.1794 20.6992 22.3073 22.0877 22.3073C23.4758 22.3073 24.6161 21.167 24.6161 19.7784C24.6285 18.3903 23.4882 17.25 22.0877 17.25Z" fill="#E1E1E1"/>
<path d="M39.4155 18.5639V11.3379H4.33813V28.9635L10.3867 23.6212C11.5394 22.6048 13.2377 22.5676 14.4399 23.5221L21.939 29.5087C22.3726 29.856 23.0049 29.8436 23.4262 29.4839L28.5331 25.1704C31.0491 21.6751 34.9533 19.221 39.4155 18.5639ZM22.0876 24.3027C19.5964 24.3027 17.5759 22.2827 17.5759 19.791C17.5759 17.2997 19.5959 15.2792 22.0876 15.2792C24.5789 15.2792 26.5994 17.2997 26.5994 19.791C26.6118 22.2827 24.5789 24.3027 22.0876 24.3027Z" fill="#E1E1E1"/>
<path d="M41.7209 20.375C33.8502 20.375 27.4419 26.7833 27.4419 34.654C27.4419 42.5247 33.8502 48.933 41.7209 48.933C49.5916 48.933 55.9999 42.5247 55.9999 34.654C56.0123 26.7833 49.604 20.375 41.7209 20.375ZM46.4556 34.2323C46.2574 34.4434 45.9848 34.5425 45.7246 34.5425C45.4768 34.5425 45.2286 34.4557 45.0303 34.2819L42.7621 32.1999V39.3516C42.7621 39.8967 42.316 40.3432 41.7704 40.3432C41.2253 40.3432 40.7788 39.8967 40.7788 39.3516V32.1999L38.5729 34.2819C38.176 34.654 37.5813 34.6292 37.1968 34.2323C36.8251 33.8358 36.8498 33.2035 37.2463 32.8318L41.1509 29.2002C41.535 28.8405 42.1178 28.8405 42.5019 29.2002L46.3941 32.8318C46.803 33.2035 46.8278 33.8358 46.4556 34.2323Z" fill="#CCCCCC"/>
</g>
<defs>
<clipPath id="clip0_1489_4334">
<rect width="56" height="56" fill="white"/>
</clipPath>
</defs>
</svg>
