<svg width="19" height="18" viewBox="0 0 19 18" fill="none" xmlns="http://www.w3.org/2000/svg">
<path d="M14.0625 9.5625H17.4375" stroke="black" stroke-width="1.5" stroke-linecap="round" stroke-linejoin="round"/>
<path d="M15.75 7.875V11.25" stroke="black" stroke-width="1.5" stroke-linecap="round" stroke-linejoin="round"/>
<path d="M7.59375 11.25C9.9237 11.25 11.8125 9.3612 11.8125 7.03125C11.8125 4.7013 9.9237 2.8125 7.59375 2.8125C5.2638 2.8125 3.375 4.7013 3.375 7.03125C3.375 9.3612 5.2638 11.25 7.59375 11.25Z" stroke="black" stroke-width="1.5" stroke-linecap="round" stroke-linejoin="round"/>
<path d="M1.56091 14.0633C2.30008 13.1823 3.22322 12.4739 4.26546 11.9879C5.30769 11.5019 6.44373 11.25 7.59373 11.25C8.74372 11.25 9.87976 11.5019 10.922 11.9879C11.9642 12.4739 12.8874 13.1823 13.6265 14.0633" stroke="black" stroke-width="1.5" stroke-linecap="round" stroke-linejoin="round"/>
</svg>
